<?xml version="1.0" encoding="UTF-8"?>
<svg width="15px" height="15px" viewBox="0 0 15 15" version="1.1" xmlns="http://www.w3.org/2000/svg" xmlns:xlink="http://www.w3.org/1999/xlink">
    <!-- Generator: Sketch 64 (93537) - https://sketch.com -->
    <title>icon-search</title>
    <desc>Created with Sketch.</desc>
    <g id="Conversation-Intelligence" stroke="none" stroke-width="1" fill="none" fill-rule="evenodd">
        <g id="Main-UI" transform="translate(-37.000000, -228.000000)" fill="#B7C0CE">
            <g id="main-body" transform="translate(0.000000, 218.000000)">
                <g id="search" transform="translate(26.000000, 0.000000)">
                    <path d="M21.4166667,19.1666667 L20.75,19.1666667 L20.5,18.9166667 C21.3333333,18 21.8333333,16.75 21.8333333,15.4166667 C21.8333333,12.4166667 19.4166667,10 16.4166667,10 C13.4166667,10 11,12.4166667 11,15.4166667 C11,18.4166667 13.4166667,20.8333333 16.4166667,20.8333333 C17.75,20.8333333 19,20.3333333 19.9166667,19.5 L20.1666667,19.75 L20.1666667,20.4166667 L24.3333333,24.5833333 L25.5833333,23.3333333 L21.4166667,19.1666667 L21.4166667,19.1666667 Z M16.4166667,19.1666667 C14.3333333,19.1666667 12.6666667,17.5 12.6666667,15.4166667 C12.6666667,13.3333333 14.3333333,11.6666667 16.4166667,11.6666667 C18.5,11.6666667 20.1666667,13.3333333 20.1666667,15.4166667 C20.1666667,17.5 18.5,19.1666667 16.4166667,19.1666667 L16.4166667,19.1666667 Z" id="icon-search"></path>
                </g>
            </g>
        </g>
    </g>
</svg>