<?xml version="1.0" encoding="UTF-8"?>
<svg width="34px" height="34px" viewBox="0 0 34 34" version="1.1" xmlns="http://www.w3.org/2000/svg" xmlns:xlink="http://www.w3.org/1999/xlink">
    <!-- Generator: Sketch 64 (93537) - https://sketch.com -->
    <title>pause-circle-fill</title>
    <desc>Created with Sketch.</desc>
    <defs>
        <linearGradient x1="50%" y1="0%" x2="50%" y2="100%" id="linearGradient-1">
            <stop stop-color="#229FFB" offset="0%"></stop>
            <stop stop-color="#028FEE" offset="100%"></stop>
        </linearGradient>
    </defs>
    <g id="Conversation-Intelligence" stroke="none" stroke-width="1" fill="none" fill-rule="evenodd">
        <g id="Main-UI" transform="translate(-55.000000, -13.000000)" fill="url(#linearGradient-1)" stroke="#028BE6">
            <g id="top">
                <g id="controls-&amp;-actions">
                    <g id="audio-controls" transform="translate(25.000000, 13.000000)">
                        <path d="M47,0.5 C51.5375,0.5 55.6621816,2.35678833 58.6526966,5.34730339 C61.6432117,8.33781845 63.5,12.4625 63.5,17 C63.5,21.5375 61.6432117,25.6621816 58.6526966,28.6526966 C55.6621816,31.6432117 51.5375,33.5 47,33.5 C42.4625,33.5 38.3378184,31.6432117 35.3473034,28.6526966 C32.3567883,25.6621816 30.5,21.5375 30.5,17 C30.5,12.4625 32.3567883,8.33781845 35.3473034,5.34730339 C38.3378184,2.35678833 42.4625,0.5 47,0.5 Z M45.5,9.5 L41.5,9.5 L41.5,24.5 L45.5,24.5 L45.5,9.5 Z M52.5,9.5 L48.5,9.5 L48.5,24.5 L52.5,24.5 L52.5,9.5 Z" id="pause-circle-fill"></path>
                    </g>
                </g>
            </g>
        </g>
    </g>
</svg>